Mike O’Brien - Time series box plot using R’s ggplot2
…
my_data

# A tibble: 75 × 4
# Rowwise: 
   individual time                phase    value
   <chr>      <dttm>              <ord>    <dbl>
 1 a          2020-02-03 12:00:00 Before -0.641 
 2 a          2020-02-03 12:01:00 Before  1.05  
 3 a          2020-02-03 12:02:00 Before  1.19  
 4 a          2020-02-03 12:03:00 Before -1.18  
 5 a          2020-02-03 12:04:00 Before  0.0734
 6 a          2020-02-03 12:05:00 Impact -1.52  
 7 a          2020-02-03 12:06:00 Impact -2.33  
 8 a          2020-02-03 12:07:00 Impact -3.00  
 9 a          2020-02-03 12:08:00 Impact -1.63  
10 a          2020-02-03 12:09:00 Impact -2.47  
# ℹ 65 more rows

Eventually, we’ll want to find where, exactly, an observation falls in a given phase’s timeline. To do this, we’ll find start/end time for each trial phase and join them back in.

my_data <- my_data |> 
  group_by(phase) |> 
  summarize(time.start = min(time),
            time.end = max(time)) |> 
  right_join(my_data)

Joining with `by = join_by(phase)`

my_data

# A tibble: 75 × 6
   phase  time.start          time.end            individual time               
   <ord>  <dttm>              <dttm>              <chr>      <dttm>             
 1 Before 2020-02-03 12:00:00 2020-02-03 12:04:00 a          2020-02-03 12:00:00
 2 Before 2020-02-03 12:00:00 2020-02-03 12:04:00 a          2020-02-03 12:01:00
 3 Before 2020-02-03 12:00:00 2020-02-03 12:04:00 a          2020-02-03 12:02:00
 4 Before 2020-02-03 12:00:00 2020-02-03 12:04:00 a          2020-02-03 12:03:00
 5 Before 2020-02-03 12:00:00 2020-02-03 12:04:00 a          2020-02-03 12:04:00
 6 Before 2020-02-03 12:00:00 2020-02-03 12:04:00 b          2020-02-03 12:00:00
 7 Before 2020-02-03 12:00:00 2020-02-03 12:04:00 b          2020-02-03 12:01:00
 8 Before 2020-02-03 12:00:00 2020-02-03 12:04:00 b          2020-02-03 12:02:00
 9 Before 2020-02-03 12:00:00 2020-02-03 12:04:00 b          2020-02-03 12:03:00
10 Before 2020-02-03 12:00:00 2020-02-03 12:04:00 b          2020-02-03 12:04:00
# ℹ 65 more rows
# ℹ 1 more variable: value <dbl>

POSIX dates are the number of seconds since midnight on Jan 1, 1970. While we can’t do easy math on a date, we can easily use the number of seconds. Let’s convert the POSIX dates to numeric; we can use this to translate each time series to a different scale in the next step, below.

my_data <- my_data |> 
  mutate_at(vars(starts_with('time')),
            as.numeric)

my_data

# A tibble: 75 × 6
   phase  time.start   time.end individual       time   value
   <ord>       <dbl>      <dbl> <chr>           <dbl>   <dbl>
 1 Before 1580731200 1580731440 a          1580731200 -0.641 
 2 Before 1580731200 1580731440 a          1580731260  1.05  
 3 Before 1580731200 1580731440 a          1580731320  1.19  
 4 Before 1580731200 1580731440 a          1580731380 -1.18  
 5 Before 1580731200 1580731440 a          1580731440  0.0734
 6 Before 1580731200 1580731440 b          1580731200  1.41  
 7 Before 1580731200 1580731440 b          1580731260 -0.822 
 8 Before 1580731200 1580731440 b          1580731320  0.976 
 9 Before 1580731200 1580731440 b          1580731380 -1.11  
10 Before 1580731200 1580731440 b          1580731440 -1.88  
# ℹ 65 more rows
…
